1 7 6
4 7 2
7 7 2
10 7 8
13 1 6
16 7 6
19 7 8
22 1 4
25 3 2
28 3 6
31 1 4
34 5 6
37 1 6
40 1 4
43 3 6
46 7 2
49 7 6
52 5 8
55 1 2
58 7 8
61 3 6
64 5 6
67 3 2
70 1 2
73 3 8
76 3 4
79 5 2
82 7 8
85 5 6
88 5 6
91 7 6
94 7 8
97 7 2
