1 1 2
4 1 2
7 1 2
10 1 2
13 1 2
16 1 2
19 1 2
22 1 2
25 1 2
28 1 2
31 1 2
34 1 2
37 1 2
40 1 2
43 1 2
46 1 2
49 1 2
52 1 2
55 1 2
58 1 2
61 1 2
64 1 2
67 1 2
70 1 2
73 1 2
76 1 2
79 1 2
82 1 2
85 1 2
88 1 2
91 1 2
94 1 2
97 1 2
