1 1 4
4 3 2
7 1 4
10 1 4
13 3 4
16 1 2
19 3 4
22 3 4
25 1 4
28 1 4
31 1 4
34 1 2
37 1 2
40 1 4
43 1 2
46 1 2
49 1 4
52 1 2
55 1 2
58 1 4
61 1 4
64 3 2
67 3 4
70 1 2
73 3 4
76 3 4
79 1 2
82 3 2
85 1 2
88 3 2
91 1 4
94 1 4
97 3 2
